2005.11.08 17:26 B U:\conservatory\cache\%%-92\%%-929175826\how-it-works.tpl --> demo.talash.net /cache/%%-92/%%-929175826 how-it-works.tpl
2005.11.09 17:22 B U:\conservatory\cache\%%-92\%%-929175826\how-it-works.tpl --> quickclickconservatories.co.uk /cache/%%-92/%%-929175826 how-it-works.tpl
2005.11.09 17:22 B U:\conservatory\cache\%%-92\%%-929175826\WS_FTP.LOG --> quickclickconservatories.co.uk /cache/%%-92/%%-929175826 WS_FTP.LOG
2006.01.11 11:42 B S:\cache\%%-92\%%-929175826\how-it-works.tpl --> demo.talash.net /cache/%%-92/%%-929175826 how-it-works.tpl
2006.01.11 11:42 B S:\cache\%%-92\%%-929175826\WS_FTP.LOG --> demo.talash.net /cache/%%-92/%%-929175826 WS_FTP.LOG
