Date,BetUS,Bodog,TVG,TWINSPIRES,Betonline,SportsInteraction
2011-05-02,61,109,0,0,0,0
2011-05-03,127,176,21,0,0,0
2011-05-04,153,134,348,0,0,0
2011-05-05,199,199,504,0,0,0
2011-05-06,0,292,1201,259,309,231
2011-05-07,1,0,1380,817,924,491
2011-05-08,0,0,60,42,26,14
2011-05-09,0,0,52,8,19,10
2011-05-10,0,0,33,9,9,4
2011-05-11,0,0,27,11,24,1
2011-05-12,0,0,30,6,28,0
2011-05-13,0,0,21,4,18,0
2011-05-14,0,0,24,11,22,0
2011-05-15,0,0,17,5,21,0
2011-05-16,0,0,18,5,13,0
2011-05-17,0,0,21,3,12,0
2011-05-18,0,9,28,1,8,0
2011-05-19,0,17,47,0,12,0
2011-05-20,0,58,121,0,16,0
2011-05-21,0,381,680,0,137,0
2011-05-22,0,18,25,0,4,0
2011-05-23,0,13,12,0,2,0
2011-05-24,0,2,2,0,0,0
