2005.11.08 17:31 B U:\conservatory\libs\core\core.assemble_plugin_filepath.php --> demo.talash.net /libs/core core.assemble_plugin_filepath.php
2005.11.08 17:31 B U:\conservatory\libs\core\core.assign_smarty_interface.php --> demo.talash.net /libs/core core.assign_smarty_interface.php
2005.11.08 17:31 B U:\conservatory\libs\core\core.create_dir_structure.php --> demo.talash.net /libs/core core.create_dir_structure.php
2005.11.08 17:31 B U:\conservatory\libs\core\core.display_debug_console.php --> demo.talash.net /libs/core core.display_debug_console.php
2005.11.08 17:31 B U:\conservatory\libs\core\core.get_include_path.php --> demo.talash.net /libs/core core.get_include_path.php
2005.11.08 17:31 B U:\conservatory\libs\core\core.get_microtime.php --> demo.talash.net /libs/core core.get_microtime.php
2005.11.08 17:31 B U:\conservatory\libs\core\core.get_php_resource.php --> demo.talash.net /libs/core core.get_php_resource.php
2005.11.08 17:32 B U:\conservatory\libs\core\core.is_secure.php --> demo.talash.net /libs/core core.is_secure.php
2005.11.08 17:32 B U:\conservatory\libs\core\core.is_trusted.php --> demo.talash.net /libs/core core.is_trusted.php
2005.11.08 17:32 B U:\conservatory\libs\core\core.load_plugins.php --> demo.talash.net /libs/core core.load_plugins.php
2005.11.08 17:32 B U:\conservatory\libs\core\core.load_resource_plugin.php --> demo.talash.net /libs/core core.load_resource_plugin.php
2005.11.08 17:32 B U:\conservatory\libs\core\core.process_cached_inserts.php --> demo.talash.net /libs/core core.process_cached_inserts.php
2005.11.08 17:32 B U:\conservatory\libs\core\core.process_compiled_include.php --> demo.talash.net /libs/core core.process_compiled_include.php
2005.11.08 17:32 B U:\conservatory\libs\core\core.read_cache_file.php --> demo.talash.net /libs/core core.read_cache_file.php
2005.11.08 17:32 B U:\conservatory\libs\core\core.rm_auto.php --> demo.talash.net /libs/core core.rm_auto.php
2005.11.08 17:32 B U:\conservatory\libs\core\core.rmdir.php --> demo.talash.net /libs/core core.rmdir.php
2005.11.08 17:32 B U:\conservatory\libs\core\core.run_insert_handler.php --> demo.talash.net /libs/core core.run_insert_handler.php
2005.11.08 17:32 B U:\conservatory\libs\core\core.smarty_include_php.php --> demo.talash.net /libs/core core.smarty_include_php.php
2005.11.08 17:32 B U:\conservatory\libs\core\core.write_cache_file.php --> demo.talash.net /libs/core core.write_cache_file.php
2005.11.08 17:32 B U:\conservatory\libs\core\core.write_compiled_include.php --> demo.talash.net /libs/core core.write_compiled_include.php
2005.11.08 17:32 B U:\conservatory\libs\core\core.write_compiled_resource.php --> demo.talash.net /libs/core core.write_compiled_resource.php
2005.11.08 17:32 B U:\conservatory\libs\core\core.write_file.php --> demo.talash.net /libs/core core.write_file.php
2005.11.09 17:27 B U:\conservatory\libs\core\core.assemble_plugin_filepath.php --> quickclickconservatories.co.uk /libs/core core.assemble_plugin_filepath.php
2005.11.09 17:27 B U:\conservatory\libs\core\core.assign_smarty_interface.php --> quickclickconservatories.co.uk /libs/core core.assign_smarty_interface.php
2005.11.09 17:27 B U:\conservatory\libs\core\core.create_dir_structure.php --> quickclickconservatories.co.uk /libs/core core.create_dir_structure.php
2005.11.09 17:28 B U:\conservatory\libs\core\core.display_debug_console.php --> quickclickconservatories.co.uk /libs/core core.display_debug_console.php
2005.11.09 17:28 B U:\conservatory\libs\core\core.get_include_path.php --> quickclickconservatories.co.uk /libs/core core.get_include_path.php
2005.11.09 17:28 B U:\conservatory\libs\core\core.get_microtime.php --> quickclickconservatories.co.uk /libs/core core.get_microtime.php
2005.11.09 17:28 B U:\conservatory\libs\core\core.get_php_resource.php --> quickclickconservatories.co.uk /libs/core core.get_php_resource.php
2005.11.09 17:28 B U:\conservatory\libs\core\core.is_secure.php --> quickclickconservatories.co.uk /libs/core core.is_secure.php
2005.11.09 17:28 B U:\conservatory\libs\core\core.is_trusted.php --> quickclickconservatories.co.uk /libs/core core.is_trusted.php
2005.11.09 17:28 B U:\conservatory\libs\core\core.load_plugins.php --> quickclickconservatories.co.uk /libs/core core.load_plugins.php
2005.11.09 17:28 B U:\conservatory\libs\core\core.load_resource_plugin.php --> quickclickconservatories.co.uk /libs/core core.load_resource_plugin.php
2005.11.09 17:28 B U:\conservatory\libs\core\core.process_cached_inserts.php --> quickclickconservatories.co.uk /libs/core core.process_cached_inserts.php
2005.11.09 17:28 B U:\conservatory\libs\core\core.process_compiled_include.php --> quickclickconservatories.co.uk /libs/core core.process_compiled_include.php
2005.11.09 17:28 B U:\conservatory\libs\core\core.read_cache_file.php --> quickclickconservatories.co.uk /libs/core core.read_cache_file.php
2005.11.09 17:28 B U:\conservatory\libs\core\core.rm_auto.php --> quickclickconservatories.co.uk /libs/core core.rm_auto.php
2005.11.09 17:28 B U:\conservatory\libs\core\core.rmdir.php --> quickclickconservatories.co.uk /libs/core core.rmdir.php
2005.11.09 17:28 B U:\conservatory\libs\core\core.run_insert_handler.php --> quickclickconservatories.co.uk /libs/core core.run_insert_handler.php
2005.11.09 17:28 B U:\conservatory\libs\core\core.smarty_include_php.php --> quickclickconservatories.co.uk /libs/core core.smarty_include_php.php
2005.11.09 17:28 B U:\conservatory\libs\core\core.write_cache_file.php --> quickclickconservatories.co.uk /libs/core core.write_cache_file.php
2005.11.09 17:29 B U:\conservatory\libs\core\core.write_compiled_include.php --> quickclickconservatories.co.uk /libs/core core.write_compiled_include.php
2005.11.09 17:29 B U:\conservatory\libs\core\core.write_compiled_resource.php --> quickclickconservatories.co.uk /libs/core core.write_compiled_resource.php
2005.11.09 17:29 B U:\conservatory\libs\core\core.write_file.php --> quickclickconservatories.co.uk /libs/core core.write_file.php
2005.11.09 17:29 B U:\conservatory\libs\core\WS_FTP.LOG --> quickclickconservatories.co.uk /libs/core WS_FTP.LOG
2006.01.11 11:52 B S:\libs\core\core.assemble_plugin_filepath.php --> demo.talash.net /libs/core core.assemble_plugin_filepath.php
2006.01.11 11:52 B S:\libs\core\core.assign_smarty_interface.php --> demo.talash.net /libs/core core.assign_smarty_interface.php
2006.01.11 11:52 B S:\libs\core\core.create_dir_structure.php --> demo.talash.net /libs/core core.create_dir_structure.php
2006.01.11 11:52 B S:\libs\core\core.display_debug_console.php --> demo.talash.net /libs/core core.display_debug_console.php
2006.01.11 11:52 B S:\libs\core\core.get_include_path.php --> demo.talash.net /libs/core core.get_include_path.php
2006.01.11 11:52 B S:\libs\core\core.get_microtime.php --> demo.talash.net /libs/core core.get_microtime.php
2006.01.11 11:52 B S:\libs\core\core.get_php_resource.php --> demo.talash.net /libs/core core.get_php_resource.php
2006.01.11 11:52 B S:\libs\core\core.is_secure.php --> demo.talash.net /libs/core core.is_secure.php
2006.01.11 11:52 B S:\libs\core\core.is_trusted.php --> demo.talash.net /libs/core core.is_trusted.php
2006.01.11 11:52 B S:\libs\core\core.load_plugins.php --> demo.talash.net /libs/core core.load_plugins.php
2006.01.11 11:52 B S:\libs\core\core.load_resource_plugin.php --> demo.talash.net /libs/core core.load_resource_plugin.php
2006.01.11 11:52 B S:\libs\core\core.process_cached_inserts.php --> demo.talash.net /libs/core core.process_cached_inserts.php
2006.01.11 11:52 B S:\libs\core\core.process_compiled_include.php --> demo.talash.net /libs/core core.process_compiled_include.php
2006.01.11 11:52 B S:\libs\core\core.read_cache_file.php --> demo.talash.net /libs/core core.read_cache_file.php
2006.01.11 11:52 B S:\libs\core\core.rm_auto.php --> demo.talash.net /libs/core core.rm_auto.php
2006.01.11 11:52 B S:\libs\core\core.rmdir.php --> demo.talash.net /libs/core core.rmdir.php
2006.01.11 11:52 B S:\libs\core\core.run_insert_handler.php --> demo.talash.net /libs/core core.run_insert_handler.php
2006.01.11 11:52 B S:\libs\core\core.smarty_include_php.php --> demo.talash.net /libs/core core.smarty_include_php.php
2006.01.11 11:52 B S:\libs\core\core.write_cache_file.php --> demo.talash.net /libs/core core.write_cache_file.php
2006.01.11 11:52 B S:\libs\core\core.write_compiled_include.php --> demo.talash.net /libs/core core.write_compiled_include.php
2006.01.11 11:52 B S:\libs\core\core.write_compiled_resource.php --> demo.talash.net /libs/core core.write_compiled_resource.php
2006.01.11 11:53 B S:\libs\core\core.write_file.php --> demo.talash.net /libs/core core.write_file.php
2006.01.11 11:53 B S:\libs\core\WS_FTP.LOG --> demo.talash.net /libs/core WS_FTP.LOG
2006.01.13 10:52 B S:\libs\core\core.assemble_plugin_filepath.php --> freepgs.com /libs/core core.assemble_plugin_filepath.php
2006.01.13 10:52 B S:\libs\core\core.assign_smarty_interface.php --> freepgs.com /libs/core core.assign_smarty_interface.php
2006.01.13 10:52 B S:\libs\core\core.create_dir_structure.php --> freepgs.com /libs/core core.create_dir_structure.php
2006.01.13 10:52 B S:\libs\core\core.display_debug_console.php --> freepgs.com /libs/core core.display_debug_console.php
2006.01.13 10:52 B S:\libs\core\core.get_include_path.php --> freepgs.com /libs/core core.get_include_path.php
2006.01.13 10:53 B S:\libs\core\core.get_microtime.php --> freepgs.com /libs/core core.get_microtime.php
2006.01.13 10:53 B S:\libs\core\core.get_php_resource.php --> freepgs.com /libs/core core.get_php_resource.php
2006.01.13 10:53 B S:\libs\core\core.is_secure.php --> freepgs.com /libs/core core.is_secure.php
2006.01.13 10:53 B S:\libs\core\core.is_trusted.php --> freepgs.com /libs/core core.is_trusted.php
2006.01.13 10:53 B S:\libs\core\core.load_plugins.php --> freepgs.com /libs/core core.load_plugins.php
2006.01.13 10:53 B S:\libs\core\core.load_resource_plugin.php --> freepgs.com /libs/core core.load_resource_plugin.php
2006.01.13 10:53 B S:\libs\core\core.process_cached_inserts.php --> freepgs.com /libs/core core.process_cached_inserts.php
2006.01.13 10:53 B S:\libs\core\core.process_compiled_include.php --> freepgs.com /libs/core core.process_compiled_include.php
2006.01.13 10:53 B S:\libs\core\core.read_cache_file.php --> freepgs.com /libs/core core.read_cache_file.php
2006.01.13 10:53 B S:\libs\core\core.rm_auto.php --> freepgs.com /libs/core core.rm_auto.php
2006.01.13 10:53 B S:\libs\core\core.rmdir.php --> freepgs.com /libs/core core.rmdir.php
2006.01.13 10:53 B S:\libs\core\core.run_insert_handler.php --> freepgs.com /libs/core core.run_insert_handler.php
2006.01.13 10:53 B S:\libs\core\core.smarty_include_php.php --> freepgs.com /libs/core core.smarty_include_php.php
2006.01.13 10:53 B S:\libs\core\core.write_cache_file.php --> freepgs.com /libs/core core.write_cache_file.php
2006.01.13 10:53 B S:\libs\core\core.write_compiled_include.php --> freepgs.com /libs/core core.write_compiled_include.php
2006.01.13 10:53 B S:\libs\core\core.write_compiled_resource.php --> freepgs.com /libs/core core.write_compiled_resource.php
2006.01.13 10:53 B S:\libs\core\core.write_file.php --> freepgs.com /libs/core core.write_file.php
2006.01.13 10:53 B S:\libs\core\WS_FTP.LOG --> freepgs.com /libs/core WS_FTP.LOG
