2006.03.01 18:36 B W:\editor_files\images\arrow_down.gif --> demo.talash.net /editor_files/images arrow_down.gif
2006.03.01 18:36 B W:\editor_files\images\arrow_up.gif --> demo.talash.net /editor_files/images arrow_up.gif
2006.03.01 18:36 B W:\editor_files\images\bgcolor.gif --> demo.talash.net /editor_files/images bgcolor.gif
2006.03.01 18:36 B W:\editor_files\images\bold.gif --> demo.talash.net /editor_files/images bold.gif
2006.03.01 18:36 B W:\editor_files\images\bookmark.gif --> demo.talash.net /editor_files/images bookmark.gif
2006.03.01 18:36 B W:\editor_files\images\bookmark_symbol.gif --> demo.talash.net /editor_files/images bookmark_symbol.gif
2006.03.01 18:36 B W:\editor_files\images\brackets.gif --> demo.talash.net /editor_files/images brackets.gif
2006.03.01 18:36 B W:\editor_files\images\branch.gif --> demo.talash.net /editor_files/images branch.gif
2006.03.01 18:36 B W:\editor_files\images\bullist.gif --> demo.talash.net /editor_files/images bullist.gif
2006.03.01 18:36 B W:\editor_files\images\center.gif --> demo.talash.net /editor_files/images center.gif
2006.03.01 18:36 B W:\editor_files\images\choose_image.gif --> demo.talash.net /editor_files/images choose_image.gif
2006.03.01 18:36 B W:\editor_files\images\copy.gif --> demo.talash.net /editor_files/images copy.gif
2006.03.01 18:37 B W:\editor_files\images\custom.gif --> demo.talash.net /editor_files/images custom.gif
2006.03.01 18:37 B W:\editor_files\images\cut.gif --> demo.talash.net /editor_files/images cut.gif
2006.03.01 18:37 B W:\editor_files\images\deindent.gif --> demo.talash.net /editor_files/images deindent.gif
2006.03.01 18:37 B W:\editor_files\images\delcol.gif --> demo.talash.net /editor_files/images delcol.gif
2006.03.01 18:37 B W:\editor_files\images\delete.gif --> demo.talash.net /editor_files/images delete.gif
2006.03.01 18:37 B W:\editor_files\images\delrow.gif --> demo.talash.net /editor_files/images delrow.gif
2006.03.01 18:37 B W:\editor_files\images\doc_icon.gif --> demo.talash.net /editor_files/images doc_icon.gif
2006.03.01 18:37 B W:\editor_files\images\doc_link.gif --> demo.talash.net /editor_files/images doc_link.gif
2006.03.01 18:37 B W:\editor_files\images\down_arrow.gif --> demo.talash.net /editor_files/images down_arrow.gif
2006.03.01 18:37 B W:\editor_files\images\edittable.gif --> demo.talash.net /editor_files/images edittable.gif
2006.03.01 18:37 B W:\editor_files\images\email_address.gif --> demo.talash.net /editor_files/images email_address.gif
2006.03.01 18:37 B W:\editor_files\images\exe_icon.gif --> demo.talash.net /editor_files/images exe_icon.gif
2006.03.01 18:37 B W:\editor_files\images\external_link.gif --> demo.talash.net /editor_files/images external_link.gif
2006.03.01 18:37 B W:\editor_files\images\file_on_this_site.gif --> demo.talash.net /editor_files/images file_on_this_site.gif
2006.03.01 18:37 B W:\editor_files\images\find.gif --> demo.talash.net /editor_files/images find.gif
2006.03.01 18:37 B W:\editor_files\images\folder.gif --> demo.talash.net /editor_files/images folder.gif
2006.03.01 18:37 B W:\editor_files\images\fontcolor.gif --> demo.talash.net /editor_files/images fontcolor.gif
2006.03.01 18:37 B W:\editor_files\images\gif_icon.gif --> demo.talash.net /editor_files/images gif_icon.gif
2006.03.01 18:37 B W:\editor_files\images\htm_icon.gif --> demo.talash.net /editor_files/images htm_icon.gif
2006.03.01 18:37 B W:\editor_files\images\html.gif --> demo.talash.net /editor_files/images html.gif
2006.03.01 18:37 B W:\editor_files\images\icon_rule.gif --> demo.talash.net /editor_files/images icon_rule.gif
2006.03.01 18:37 B W:\editor_files\images\image.gif --> demo.talash.net /editor_files/images image.gif
2006.03.01 18:37 B W:\editor_files\images\image_icon.gif --> demo.talash.net /editor_files/images image_icon.gif
2006.03.01 18:37 B W:\editor_files\images\inindent.gif --> demo.talash.net /editor_files/images inindent.gif
2006.03.01 18:37 B W:\editor_files\images\inscol.gif --> demo.talash.net /editor_files/images inscol.gif
2006.03.01 18:37 B W:\editor_files\images\inscolleft.gif --> demo.talash.net /editor_files/images inscolleft.gif
2006.03.01 18:37 B W:\editor_files\images\inscolright.gif --> demo.talash.net /editor_files/images inscolright.gif
2006.03.01 18:37 B W:\editor_files\images\insrow.gif --> demo.talash.net /editor_files/images insrow.gif
2006.03.01 18:37 B W:\editor_files\images\insrowabove.gif --> demo.talash.net /editor_files/images insrowabove.gif
2006.03.01 18:37 B W:\editor_files\images\insrowbelow.gif --> demo.talash.net /editor_files/images insrowbelow.gif
2006.03.01 18:37 B W:\editor_files\images\instable.gif --> demo.talash.net /editor_files/images instable.gif
2006.03.01 18:37 B W:\editor_files\images\italic.gif --> demo.talash.net /editor_files/images italic.gif
2006.03.01 18:37 B W:\editor_files\images\jpg_icon.gif --> demo.talash.net /editor_files/images jpg_icon.gif
2006.03.01 18:37 B W:\editor_files\images\justify.gif --> demo.talash.net /editor_files/images justify.gif
2006.03.01 18:37 B W:\editor_files\images\left.gif --> demo.talash.net /editor_files/images left.gif
2006.03.01 18:37 B W:\editor_files\images\link.gif --> demo.talash.net /editor_files/images link.gif
2006.03.01 18:37 B W:\editor_files\images\load_bar.gif --> demo.talash.net /editor_files/images load_bar.gif
2006.03.01 18:37 B W:\editor_files\images\mov_icon.gif --> demo.talash.net /editor_files/images mov_icon.gif
2006.03.01 18:38 B W:\editor_files\images\mrgcell.gif --> demo.talash.net /editor_files/images mrgcell.gif
2006.03.01 18:38 B W:\editor_files\images\mrgcelld.gif --> demo.talash.net /editor_files/images mrgcelld.gif
2006.03.01 18:38 B W:\editor_files\images\mrgcellh.gif --> demo.talash.net /editor_files/images mrgcellh.gif
2006.03.01 18:38 B W:\editor_files\images\newfolder.gif --> demo.talash.net /editor_files/images newfolder.gif
2006.03.01 18:38 B W:\editor_files\images\newpage.gif --> demo.talash.net /editor_files/images newpage.gif
2006.03.01 18:38 B W:\editor_files\images\normal.gif --> demo.talash.net /editor_files/images normal.gif
2006.03.01 18:38 B W:\editor_files\images\numlist.gif --> demo.talash.net /editor_files/images numlist.gif
2006.03.01 18:38 B W:\editor_files\images\open_folder.gif --> demo.talash.net /editor_files/images open_folder.gif
2006.03.01 18:38 B W:\editor_files\images\paragraph.gif --> demo.talash.net /editor_files/images paragraph.gif
2006.03.01 18:38 B W:\editor_files\images\paste.gif --> demo.talash.net /editor_files/images paste.gif
2006.03.01 18:38 B W:\editor_files\images\pasteword.gif --> demo.talash.net /editor_files/images pasteword.gif
2006.03.01 18:38 B W:\editor_files\images\pdf_icon.gif --> demo.talash.net /editor_files/images pdf_icon.gif
2006.03.01 18:38 B W:\editor_files\images\place_on_this_page.gif --> demo.talash.net /editor_files/images place_on_this_page.gif
2006.03.01 18:38 B W:\editor_files\images\png_icon.gif --> demo.talash.net /editor_files/images png_icon.gif
2006.03.01 18:38 B W:\editor_files\images\post.gif --> demo.talash.net /editor_files/images post.gif
2006.03.01 18:38 B W:\editor_files\images\pps_icon.gif --> demo.talash.net /editor_files/images pps_icon.gif
2006.03.01 18:38 B W:\editor_files\images\ppt_icon.gif --> demo.talash.net /editor_files/images ppt_icon.gif
2006.03.01 18:38 B W:\editor_files\images\preview.gif --> demo.talash.net /editor_files/images preview.gif
2006.03.01 18:38 B W:\editor_files\images\print.gif --> demo.talash.net /editor_files/images print.gif
2006.03.01 18:38 B W:\editor_files\images\redo.gif --> demo.talash.net /editor_files/images redo.gif
2006.03.01 18:38 B W:\editor_files\images\rem_link.gif --> demo.talash.net /editor_files/images rem_link.gif
2006.03.01 18:38 B W:\editor_files\images\rename.gif --> demo.talash.net /editor_files/images rename.gif
2006.03.01 18:38 B W:\editor_files\images\right.gif --> demo.talash.net /editor_files/images right.gif
2006.03.01 18:38 B W:\editor_files\images\rm_icon.gif --> demo.talash.net /editor_files/images rm_icon.gif
2006.03.01 18:38 B W:\editor_files\images\rtf_icon.gif --> demo.talash.net /editor_files/images rtf_icon.gif
2006.03.01 18:38 B W:\editor_files\images\save.gif --> demo.talash.net /editor_files/images save.gif
2006.03.01 18:38 B W:\editor_files\images\send.gif --> demo.talash.net /editor_files/images send.gif
2006.03.01 18:38 B W:\editor_files\images\smiley.gif --> demo.talash.net /editor_files/images smiley.gif
2006.03.01 18:38 B W:\editor_files\images\space.gif --> demo.talash.net /editor_files/images space.gif
2006.03.01 18:38 B W:\editor_files\images\spacer.gif --> demo.talash.net /editor_files/images spacer.gif
2006.03.01 18:38 B W:\editor_files\images\specialchar.gif --> demo.talash.net /editor_files/images specialchar.gif
2006.03.01 18:38 B W:\editor_files\images\spelling.gif --> demo.talash.net /editor_files/images spelling.gif
2006.03.01 18:38 B W:\editor_files\images\spltcell.gif --> demo.talash.net /editor_files/images spltcell.gif
2006.03.01 18:38 B W:\editor_files\images\spltcellh.gif --> demo.talash.net /editor_files/images spltcellh.gif
2006.03.01 18:38 B W:\editor_files\images\swf_icon.gif --> demo.talash.net /editor_files/images swf_icon.gif
2006.03.01 18:38 B W:\editor_files\images\temp_icon.gif --> demo.talash.net /editor_files/images temp_icon.gif
2006.03.01 18:39 B W:\editor_files\images\Thumbs.db --> demo.talash.net /editor_files/images Thumbs.db
2006.03.01 18:39 B W:\editor_files\images\txt_icon.gif --> demo.talash.net /editor_files/images txt_icon.gif
2006.03.01 18:39 B W:\editor_files\images\under.gif --> demo.talash.net /editor_files/images under.gif
2006.03.01 18:39 B W:\editor_files\images\undo.gif --> demo.talash.net /editor_files/images undo.gif
2006.03.01 18:39 B W:\editor_files\images\unknown_icon.gif --> demo.talash.net /editor_files/images unknown_icon.gif
2006.03.01 18:39 B W:\editor_files\images\unmrgcelld.gif --> demo.talash.net /editor_files/images unmrgcelld.gif
2006.03.01 18:39 B W:\editor_files\images\up.gif --> demo.talash.net /editor_files/images up.gif
2006.03.01 18:39 B W:\editor_files\images\view.gif --> demo.talash.net /editor_files/images view.gif
2006.03.01 18:39 B W:\editor_files\images\white.gif --> demo.talash.net /editor_files/images white.gif
2006.03.01 18:39 B W:\editor_files\images\wmv_icon.gif --> demo.talash.net /editor_files/images wmv_icon.gif
2006.03.01 18:39 B W:\editor_files\images\wrap_preview.gif --> demo.talash.net /editor_files/images wrap_preview.gif
2006.03.01 18:39 B W:\editor_files\images\xl_icon.gif --> demo.talash.net /editor_files/images xl_icon.gif
2006.03.01 18:39 B W:\editor_files\images\zip_icon.gif --> demo.talash.net /editor_files/images zip_icon.gif
