2006.03.01 18:40 B W:\editor_files\templates\IE5editor-bkp.tpl --> demo.talash.net /editor_files/templates IE5editor-bkp.tpl
2006.03.01 18:40 B W:\editor_files\templates\IE5editor.tpl --> demo.talash.net /editor_files/templates IE5editor.tpl
2006.03.01 18:40 B W:\editor_files\templates\MozEditor-bkp.tpl --> demo.talash.net /editor_files/templates MozEditor-bkp.tpl
2006.03.01 18:40 B W:\editor_files\templates\MozEditor.tpl --> demo.talash.net /editor_files/templates MozEditor.tpl
2006.03.01 18:40 B W:\editor_files\templates\textEditor.tpl --> demo.talash.net /editor_files/templates textEditor.tpl
