2006.03.01 18:36 B W:\editor_files\images\smileys\smiley1.gif --> demo.talash.net /editor_files/images/smileys smiley1.gif
2006.03.01 18:36 B W:\editor_files\images\smileys\smiley10.gif --> demo.talash.net /editor_files/images/smileys smiley10.gif
2006.03.01 18:36 B W:\editor_files\images\smileys\smiley11.gif --> demo.talash.net /editor_files/images/smileys smiley11.gif
2006.03.01 18:36 B W:\editor_files\images\smileys\smiley12.gif --> demo.talash.net /editor_files/images/smileys smiley12.gif
2006.03.01 18:36 B W:\editor_files\images\smileys\smiley13.gif --> demo.talash.net /editor_files/images/smileys smiley13.gif
2006.03.01 18:36 B W:\editor_files\images\smileys\smiley14.gif --> demo.talash.net /editor_files/images/smileys smiley14.gif
2006.03.01 18:36 B W:\editor_files\images\smileys\smiley15.gif --> demo.talash.net /editor_files/images/smileys smiley15.gif
2006.03.01 18:36 B W:\editor_files\images\smileys\smiley16.gif --> demo.talash.net /editor_files/images/smileys smiley16.gif
2006.03.01 18:36 B W:\editor_files\images\smileys\smiley2.gif --> demo.talash.net /editor_files/images/smileys smiley2.gif
2006.03.01 18:36 B W:\editor_files\images\smileys\smiley3.gif --> demo.talash.net /editor_files/images/smileys smiley3.gif
2006.03.01 18:36 B W:\editor_files\images\smileys\smiley4.gif --> demo.talash.net /editor_files/images/smileys smiley4.gif
2006.03.01 18:36 B W:\editor_files\images\smileys\smiley5.gif --> demo.talash.net /editor_files/images/smileys smiley5.gif
2006.03.01 18:36 B W:\editor_files\images\smileys\smiley6.gif --> demo.talash.net /editor_files/images/smileys smiley6.gif
2006.03.01 18:36 B W:\editor_files\images\smileys\smiley7.gif --> demo.talash.net /editor_files/images/smileys smiley7.gif
2006.03.01 18:36 B W:\editor_files\images\smileys\smiley8.gif --> demo.talash.net /editor_files/images/smileys smiley8.gif
2006.03.01 18:36 B W:\editor_files\images\smileys\smiley9.gif --> demo.talash.net /editor_files/images/smileys smiley9.gif
