Synching lin-web5
sending incremental file list

sent 3281410 bytes  received 16788 bytes  942342.29 bytes/sec
total size is 2103859884  speedup is 637.88
Synching lin-web6
sending incremental file list
horsebetting.com/httpdocs/Feeds/TrackResults/Cache/
deleting horsebetting.com/httpdocs/Feeds/TrackResults/Cache/RaceTotal_GPM_8
deleting horsebetting.com/httpdocs/Feeds/TrackResults/Cache/RaceTotal_GPM_6
deleting horsebetting.com/httpdocs/Feeds/TrackResults/Cache/RaceResult_GPM_8
deleting horsebetting.com/httpdocs/Feeds/TrackResults/Cache/RaceResult_GPM_6
deleting horsebetting.com/httpdocs/Feeds/TrackResults/Cache/RaceResult_AQU_9
deleting horsebetting.com/httpdocs/Feeds/TrackResults/Cache/RacePrice_GPM_6
horsebetting.com/httpdocs/Feeds/TrackResults/Cache/RaceEntry_AQU_9
horsebetting.com/httpdocs/Feeds/TrackResults/Cache/RaceEntry_GPM_6
horsebetting.com/httpdocs/Feeds/TrackResults/Cache/RaceEntry_GPM_8
horsebetting.com/httpdocs/Feeds/TrackResults/Cache/RaceTrackTimes_AQU
horsebetting.com/httpdocs/Feeds/TrackResults/Cache/RaceTrackTimes_GPM
horsebetting.com/httpdocs/Feeds/TrackResults/Cache/TrackResults.txt

sent 3286939 bytes  received 16995 bytes  943981.14 bytes/sec
total size is 2103859884  speedup is 636.77
Synching lin-web7
sending incremental file list
dev.allhorseracing.com/httpdocs/sites/default/files/css/
deleting dev.allhorseracing.com/httpdocs/sites/default/files/css/css_f59c5bcecd3aaa47435c33948d553ea1.css.gz
deleting dev.allhorseracing.com/httpdocs/sites/default/files/css/css_f59c5bcecd3aaa47435c33948d553ea1.css
deleting dev.allhorseracing.com/httpdocs/sites/default/files/css/css_1b2abc130fc3d4b75e0b289a2a814007.css.gz
deleting dev.allhorseracing.com/httpdocs/sites/default/files/css/css_1b2abc130fc3d4b75e0b289a2a814007.css
dev.allhorseracing.com/httpdocs/tmp/

sent 3281422 bytes  received 16800 bytes  1319288.80 bytes/sec
total size is 2103859884  speedup is 637.88
