2006.03.01 18:39 B W:\editor_files\includes\common.php --> demo.talash.net /editor_files/includes common.php
2006.03.01 18:39 B W:\editor_files\includes\error_reporting.php --> demo.talash.net /editor_files/includes error_reporting.php
2006.03.01 18:39 B W:\editor_files\includes\load_message.php --> demo.talash.net /editor_files/includes load_message.php
2006.03.01 18:39 B W:\editor_files\includes\zafImageEditor.class.php --> demo.talash.net /editor_files/includes zafImageEditor.class.php
