2006.01.11 11:51 B S:\include\dbconnect.php --> demo.talash.net /include dbconnect.php
2006.01.11 11:51 B S:\include\ini.php --> demo.talash.net /include ini.php
2006.01.11 11:51 B S:\include\iniSmarty.php --> demo.talash.net /include iniSmarty.php
2006.01.13 10:52 B S:\include\dbconnect.php --> freepgs.com /include dbconnect.php
2006.01.13 10:52 B S:\include\ini.php --> freepgs.com /include ini.php
2006.01.13 10:52 B S:\include\iniSmarty.php --> freepgs.com /include iniSmarty.php
2006.01.13 10:52 B S:\include\WS_FTP.LOG --> freepgs.com /include WS_FTP.LOG
2006.04.04 12:24 B S:\include\ini.php --> demo.talash.net /include ini.php
2006.04.04 12:25 B S:\include\ini.php --> demo.talash.net /include ini.php
