2006.03.01 18:41 B W:\editor_files\addcolumn.php --> demo.talash.net /editor_files addcolumn.php
2006.03.01 18:41 B W:\editor_files\addrow.php --> demo.talash.net /editor_files addrow.php
2006.03.01 18:41 B W:\editor_files\blank.php --> demo.talash.net /editor_files blank.php
2006.03.01 18:41 B W:\editor_files\bookmark.php --> demo.talash.net /editor_files bookmark.php
2006.03.01 18:41 B W:\editor_files\config.php --> demo.talash.net /editor_files config.php
2006.03.01 18:41 B W:\editor_files\custom.php --> demo.talash.net /editor_files custom.php
2006.03.01 18:41 B W:\editor_files\dialog_frame.php --> demo.talash.net /editor_files dialog_frame.php
2006.03.01 18:41 B W:\editor_files\dialoge_theme.css --> demo.talash.net /editor_files dialoge_theme.css
2006.03.01 18:41 B W:\editor_files\document.php --> demo.talash.net /editor_files document.php
2006.03.01 18:41 B W:\editor_files\editor_class.php --> demo.talash.net /editor_files editor_class.php
2006.03.01 18:41 B W:\editor_files\editor_functions.php --> demo.talash.net /editor_files editor_functions.php
2006.03.01 18:41 B W:\editor_files\editor_theme.css --> demo.talash.net /editor_files editor_theme.css
2006.03.01 18:41 B W:\editor_files\edittable.php --> demo.talash.net /editor_files edittable.php
2006.03.01 18:41 B W:\editor_files\find.php --> demo.talash.net /editor_files find.php
2006.03.01 18:41 B W:\editor_files\hyperlink.php --> demo.talash.net /editor_files hyperlink.php
2006.03.01 18:41 B W:\editor_files\image.php --> demo.talash.net /editor_files image.php
2006.03.01 18:41 B W:\editor_files\imageoptions.php --> demo.talash.net /editor_files imageoptions.php
2006.03.01 18:41 B W:\editor_files\insert_hr.php --> demo.talash.net /editor_files insert_hr.php
2006.03.01 18:41 B W:\editor_files\INSTALL_HELP.php --> demo.talash.net /editor_files INSTALL_HELP.php
2006.03.01 18:41 B W:\editor_files\LICENSE AND COPYRIGHT.txt --> demo.talash.net /editor_files LICENSE AND COPYRIGHT.txt
2006.03.01 18:41 B W:\editor_files\mrgcell.php --> demo.talash.net /editor_files mrgcell.php
2006.03.01 18:41 B W:\editor_files\no_preview.php --> demo.talash.net /editor_files no_preview.php
2006.03.01 18:41 B W:\editor_files\pastewin.php --> demo.talash.net /editor_files pastewin.php
2006.03.01 18:42 B W:\editor_files\secure.htm --> demo.talash.net /editor_files secure.htm
2006.03.01 18:42 B W:\editor_files\selcolor.php --> demo.talash.net /editor_files selcolor.php
2006.03.01 18:42 B W:\editor_files\smileys.php --> demo.talash.net /editor_files smileys.php
2006.03.01 18:42 B W:\editor_files\special_characters.php --> demo.talash.net /editor_files special_characters.php
2006.03.01 18:42 B W:\editor_files\table.php --> demo.talash.net /editor_files table.php
2006.03.01 18:42 B W:\editor_files\unmrgcell.php --> demo.talash.net /editor_files unmrgcell.php
2006.03.01 18:48 B W:\editor_files\config.php --> demo.talash.net /editor_files config.php
