in tpl
=============
<tr bgcolor="#FBF4EB" class="tableborder">
	    <td align="left" width="20%">Tour Date</td>
	    <td width="80%">
	    <input type="text" name="TourDate" value="" size="47" class="look">
	    <script language="javascript" src="scripts/cal/cal.js"></script>
							<a onClick='popUpCalendar(this,document.AddNewTour.TourDate,"yyyy-mm-dd")' border="0" ><img src="scripts/cal/cal.gif"></a>
	    </td>
</tr>